GFORTRAN module version '9' created from my_fun.f95
MD5:1d3734049e8ab340505d17e4b0c43c0c -- If you edit this, you'll get what you deserve.

(() () () () () () () () () () () () () () () () () () () () () () ()
() () () ())

()

()

()

()

()

(2 'f' 'myfun' '' 1 ((PROCEDURE UNKNOWN-INTENT MODULE-PROC DECL UNKNOWN
0 0 FUNCTION) (REAL 8 0 0 0 REAL ()) 3 0 (4) () 2 () () () 0 0)
5 'myfun' 'myfun' '' 1 ((MODULE UNKNOWN-INTENT UNKNOWN-PROC UNKNOWN
UNKNOWN 0 0) (UNKNOWN 0 0 0 0 UNKNOWN ()) 0 0 () () 0 () () () 0 0)
4 'x' '' '' 3 ((VARIABLE UNKNOWN-INTENT UNKNOWN-PROC UNKNOWN UNKNOWN 0 0
DUMMY) (REAL 8 0 0 0 REAL ()) 0 0 () () 0 () () () 0 0)
)

('f' 0 2 'myfun' 0 5)
