GFORTRAN module version '9' created from quadra_mod.f95
MD5:f2d24dfbe4a270857873788cc8de2458 -- If you edit this, you'll get what you deserve.

(() () () () () () () () () () () () () () () () () () () () () () ()
() () () ())

()

()

()

()

()

(2 'g' 'myfun' '' 1 ((PROCEDURE UNKNOWN-INTENT MODULE-PROC DECL UNKNOWN
0 0 FUNCTION) (REAL 8 0 0 0 REAL ()) 3 0 (4) () 2 () () () 0 0)
5 'mp' 'my_prec' '' 1 ((PARAMETER UNKNOWN-INTENT UNKNOWN-PROC UNKNOWN
IMPLICIT-SAVE 0 0) (INTEGER 4 0 0 0 INTEGER ()) 0 0 () (CONSTANT (
INTEGER 4 0 0 0 INTEGER ()) 0 '8') () 0 () () () 0 0)
6 'my_prec' 'my_prec' '' 1 ((MODULE UNKNOWN-INTENT UNKNOWN-PROC UNKNOWN
UNKNOWN 0 0) (UNKNOWN 0 0 0 0 UNKNOWN ()) 0 0 () () 0 () () () 0 0)
7 'myfun' 'myfun' '' 1 ((MODULE UNKNOWN-INTENT UNKNOWN-PROC UNKNOWN
UNKNOWN 0 0) (UNKNOWN 0 0 0 0 UNKNOWN ()) 0 0 () () 0 () () () 0 0)
8 'quadra' 'quadramod' '' 1 ((PROCEDURE UNKNOWN-INTENT MODULE-PROC DECL
UNKNOWN 0 0 FUNCTION) (REAL 8 0 0 0 REAL ()) 9 0 (10 11 12 13 14) () 8 ()
() () 0 0)
15 'quadramod' 'quadramod' '' 1 ((MODULE UNKNOWN-INTENT UNKNOWN-PROC
UNKNOWN UNKNOWN 0 0) (UNKNOWN 0 0 0 0 UNKNOWN ()) 0 0 () () 0 () () () 0
0)
16 'rectan' 'quadramod' '' 1 ((PROCEDURE UNKNOWN-INTENT MODULE-PROC DECL
UNKNOWN 0 0 FUNCTION) (REAL 8 0 0 0 REAL ()) 17 0 (18 19 20 21) () 16 ()
() () 0 0)
22 'simpson' 'quadramod' '' 1 ((PROCEDURE UNKNOWN-INTENT MODULE-PROC
DECL UNKNOWN 0 0 FUNCTION) (REAL 8 0 0 0 REAL ()) 23 0 (24 25 26 27) ()
22 () () () 0 0)
28 'trap' 'quadramod' '' 1 ((PROCEDURE UNKNOWN-INTENT MODULE-PROC DECL
UNKNOWN 0 0 FUNCTION) (REAL 8 0 0 0 REAL ()) 29 0 (30 31 32 33) () 28 ()
() () 0 0)
10 'fqua' '' '' 9 ((PROCEDURE UNKNOWN-INTENT DUMMY-PROC UNKNOWN UNKNOWN
0 0 EXTERNAL DUMMY FUNCTION) (REAL 8 0 0 0 REAL ()) 0 0 () () 10 () () ()
0 0)
11 'f' '' '' 9 ((PROCEDURE UNKNOWN-INTENT UNKNOWN-PROC UNKNOWN UNKNOWN 0
0 EXTERNAL DUMMY FUNCTION) (REAL 8 0 0 0 REAL ()) 0 0 () () 0 () () () 0
0)
4 'x' '' '' 3 ((VARIABLE UNKNOWN-INTENT UNKNOWN-PROC UNKNOWN UNKNOWN 0 0
DUMMY) (REAL 8 0 0 0 REAL ()) 0 0 () () 0 () () () 0 0)
12 'a' '' '' 9 ((VARIABLE UNKNOWN-INTENT UNKNOWN-PROC UNKNOWN UNKNOWN 0
0 DUMMY) (REAL 8 0 0 0 REAL ()) 0 0 () () 0 () () () 0 0)
13 'b' '' '' 9 ((VARIABLE UNKNOWN-INTENT UNKNOWN-PROC UNKNOWN UNKNOWN 0
0 DUMMY) (REAL 8 0 0 0 REAL ()) 0 0 () () 0 () () () 0 0)
14 'n' '' '' 9 ((VARIABLE UNKNOWN-INTENT UNKNOWN-PROC UNKNOWN UNKNOWN 0
0 DUMMY) (INTEGER 4 0 0 0 INTEGER ()) 0 0 () () 0 () () () 0 0)
18 'f' '' '' 17 ((PROCEDURE UNKNOWN-INTENT DUMMY-PROC UNKNOWN UNKNOWN 0
0 EXTERNAL DUMMY FUNCTION) (REAL 8 0 0 0 REAL ()) 0 0 () () 18 () () ()
0 0)
19 'a' '' '' 17 ((VARIABLE UNKNOWN-INTENT UNKNOWN-PROC UNKNOWN UNKNOWN 0
0 DUMMY) (REAL 8 0 0 0 REAL ()) 0 0 () () 0 () () () 0 0)
20 'b' '' '' 17 ((VARIABLE UNKNOWN-INTENT UNKNOWN-PROC UNKNOWN UNKNOWN 0
0 DUMMY) (REAL 8 0 0 0 REAL ()) 0 0 () () 0 () () () 0 0)
21 'n' '' '' 17 ((VARIABLE UNKNOWN-INTENT UNKNOWN-PROC UNKNOWN UNKNOWN 0
0 DUMMY) (INTEGER 4 0 0 0 INTEGER ()) 0 0 () () 0 () () () 0 0)
24 'f' '' '' 23 ((PROCEDURE UNKNOWN-INTENT DUMMY-PROC UNKNOWN UNKNOWN 0
0 EXTERNAL DUMMY FUNCTION) (REAL 8 0 0 0 REAL ()) 0 0 () () 24 () () ()
0 0)
25 'a' '' '' 23 ((VARIABLE UNKNOWN-INTENT UNKNOWN-PROC UNKNOWN UNKNOWN 0
0 DUMMY) (REAL 8 0 0 0 REAL ()) 0 0 () () 0 () () () 0 0)
26 'b' '' '' 23 ((VARIABLE UNKNOWN-INTENT UNKNOWN-PROC UNKNOWN UNKNOWN 0
0 DUMMY) (REAL 8 0 0 0 REAL ()) 0 0 () () 0 () () () 0 0)
27 'n' '' '' 23 ((VARIABLE UNKNOWN-INTENT UNKNOWN-PROC UNKNOWN UNKNOWN 0
0 DUMMY) (INTEGER 4 0 0 0 INTEGER ()) 0 0 () () 0 () () () 0 0)
32 'b' '' '' 29 ((VARIABLE UNKNOWN-INTENT UNKNOWN-PROC UNKNOWN UNKNOWN 0
0 DUMMY) (REAL 8 0 0 0 REAL ()) 0 0 () () 0 () () () 0 0)
33 'n' '' '' 29 ((VARIABLE UNKNOWN-INTENT UNKNOWN-PROC UNKNOWN UNKNOWN 0
0 DUMMY) (INTEGER 4 0 0 0 INTEGER ()) 0 0 () () 0 () () () 0 0)
30 'f' '' '' 29 ((PROCEDURE UNKNOWN-INTENT DUMMY-PROC UNKNOWN UNKNOWN 0
0 EXTERNAL DUMMY FUNCTION) (REAL 8 0 0 0 REAL ()) 0 0 () () 30 () () ()
0 0)
31 'a' '' '' 29 ((VARIABLE UNKNOWN-INTENT UNKNOWN-PROC UNKNOWN UNKNOWN 0
0 DUMMY) (REAL 8 0 0 0 REAL ()) 0 0 () () 0 () () () 0 0)
)

('g' 0 2 'mp' 0 5 'my_prec' 0 6 'myfun' 0 7 'quadra' 0 8 'quadramod' 0
15 'rectan' 0 16 'simpson' 0 22 'trap' 0 28)
