GFORTRAN module version '9' created from inter.f95
MD5:0793c5c212cdb4b5e393aa9e3b0c5b09 -- If you edit this, you'll get what you deserve.

(() () () () () () () () () () () () () () () () () () () () () () () ()
() () ())

()

()

()

()

()

(2 'fun' 'inter' '' 1 ((PROCEDURE UNKNOWN-INTENT MODULE-PROC BODY
UNKNOWN 0 0 EXTERNAL FUNCTION) (REAL 4 0 0 0 REAL ()) 3 0 (4 5) () 2 ()
() () 0 0)
6 'insp' 'inter' '' 1 ((PROCEDURE UNKNOWN-INTENT MODULE-PROC BODY
UNKNOWN 0 0 EXTERNAL SUBROUTINE) (UNKNOWN 0 0 0 0 UNKNOWN ()) 7 0 (8 9)
() 0 () () () 0 0)
10 'inter' 'inter' '' 1 ((MODULE UNKNOWN-INTENT UNKNOWN-PROC UNKNOWN
UNKNOWN 0 0) (UNKNOWN 0 0 0 0 UNKNOWN ()) 0 0 () () 0 () () () 0 0)
4 'a' '' '' 3 ((VARIABLE UNKNOWN-INTENT UNKNOWN-PROC UNKNOWN UNKNOWN 0 0
DUMMY) (REAL 4 0 0 0 REAL ()) 0 0 () () 0 () () () 0 0)
5 'b' '' '' 3 ((VARIABLE UNKNOWN-INTENT UNKNOWN-PROC UNKNOWN UNKNOWN 0 0
DUMMY) (REAL 4 0 0 0 REAL ()) 0 0 () () 0 () () () 0 0)
8 'a' '' '' 7 ((VARIABLE UNKNOWN-INTENT UNKNOWN-PROC UNKNOWN UNKNOWN 0 0
DUMMY) (REAL 4 0 0 0 REAL ()) 0 0 () () 0 () () () 0 0)
9 'b' '' '' 7 ((VARIABLE UNKNOWN-INTENT UNKNOWN-PROC UNKNOWN UNKNOWN 0 0
DUMMY) (REAL 4 0 0 0 REAL ()) 0 0 () () 0 () () () 0 0)
)

('fun' 0 2 'insp' 0 6 'inter' 0 10)
