GFORTRAN module version '9' created from fun.f95
MD5:30769e9c741f69a3278c6bfacc9f6d44 -- If you edit this, you'll get what you deserve.

(() () () () () () () () () () () () () () () () () () () () () () ()
() () () ())

()

()

()

()

()

(2 'fun' 'fun' '' 1 ((MODULE UNKNOWN-INTENT UNKNOWN-PROC UNKNOWN UNKNOWN
0 0) (UNKNOWN 0 0 0 0 UNKNOWN ()) 0 0 () () 0 () () () 0 0)
3 'mp' 'my_prec' '' 1 ((PARAMETER UNKNOWN-INTENT UNKNOWN-PROC UNKNOWN
IMPLICIT-SAVE 0 0) (INTEGER 4 0 0 0 INTEGER ()) 0 0 () (CONSTANT (
INTEGER 4 0 0 0 INTEGER ()) 0 '16') () 0 () () () 0 0)
4 'my_prec' 'my_prec' '' 1 ((MODULE UNKNOWN-INTENT UNKNOWN-PROC UNKNOWN
UNKNOWN 0 0) (UNKNOWN 0 0 0 0 UNKNOWN ()) 0 0 () () 0 () () () 0 0)
5 'tg0' 'fun' '' 1 ((PROCEDURE UNKNOWN-INTENT MODULE-PROC DECL UNKNOWN 0
0 FUNCTION) (REAL 16 0 0 0 REAL ()) 6 0 (7) () 5 () () () 0 0)
8 'tg1' 'fun' '' 1 ((PROCEDURE UNKNOWN-INTENT MODULE-PROC DECL UNKNOWN 0
0 FUNCTION) (REAL 16 0 0 0 REAL ()) 9 0 (10) () 8 () () () 0 0)
7 'x' '' '' 6 ((VARIABLE UNKNOWN-INTENT UNKNOWN-PROC UNKNOWN UNKNOWN 0 0
DUMMY) (REAL 16 0 0 0 REAL ()) 0 0 () () 0 () () () 0 0)
10 'x' '' '' 9 ((VARIABLE UNKNOWN-INTENT UNKNOWN-PROC UNKNOWN UNKNOWN 0
0 DUMMY) (REAL 16 0 0 0 REAL ()) 0 0 () () 0 () () () 0 0)
)

('fun' 0 2 'mp' 0 3 'my_prec' 0 4 'tg0' 0 5 'tg1' 0 8)
